"email","status","dcSBMs_community_level_0","wdcSBMs_community_level_0","dcHSBMs_community_level0","dcHSBMs_community_level1","dcHSBMs_community_level2","wdcHSBMs_community_level0","wdcHSBMs_community_level1","wdcHSBMs_community_level2","log_wdcHSBMs_community_level0","log_wdcHSBMs_community_level1","log_wdcHSBMs_community_level2"
"mary.hain@enron.com","",0,0,0,0,0,2,1,1,0,0,0
"cooper.richey@enron.com","Manager",1,1,1,1,0,1,1,1,1,1,0
"jeff.dasovich@enron.com","Employee",0,0,0,0,0,2,1,1,0,0,0
"robert.badeer@enron.com","Director",2,2,0,0,0,0,0,0,1,1,0
"kevin.hyatt@enron.com","Director",3,3,2,0,0,3,0,0,2,0,0
"larry.f.campbell@enron.com","Employee",4,6,3,0,0,2,1,1,3,2,0
"kimberly.watson@enron.com","",3,3,2,0,0,3,0,0,2,0,0
"lindy.donoho@enron.com","Employee",3,3,2,0,0,3,0,0,2,0,0
"susan.scott@enron.com","",5,5,1,1,0,4,2,1,4,1,0
"steven.harris@enron.com","Vice President",3,3,2,0,0,3,0,0,2,0,0
"darrell.schoolcraft@enron.com","",3,6,2,0,0,3,0,0,2,0,0
"shelley.corman@enron.com","Vice President",3,6,3,0,0,3,0,0,2,0,0
"michelle.lokay@enron.com","Employee",3,3,2,0,0,3,0,0,2,0,0
"mark.mcconnell@enron.com","",3,3,2,0,0,3,0,0,2,0,0
"cara.semperger@enron.com","Employee",2,2,4,0,0,0,0,0,5,2,0
"diana.scholtes@enron.com","Trader",2,2,4,0,0,0,0,0,5,2,0
"james.d.steffes@enron.com","Vice President",0,0,0,0,0,2,1,1,0,0,0
"rod.hayslett@enron.com","Vice President",3,6,3,0,0,3,0,0,2,0,0
"tracy.geaccone@enron.com","Employee",3,6,2,0,0,3,0,0,2,0,0
"stanley.horton@enron.com","President",3,6,3,0,0,2,1,1,2,0,0
"teb.lokey@enron.com","Manager",3,3,2,0,0,3,0,0,2,0,0
"bill.rapp@enron.com","",3,3,2,0,0,3,0,0,2,0,0
"drew.fossum@enron.com","Vice President",3,6,3,0,0,3,0,0,2,0,0
"richard.ring@enron.com","Employee",6,4,0,0,0,1,1,1,0,0,0
"mark.e.taylor@enron.com","Employee",7,7,5,2,0,5,3,0,6,0,0
"louise.kitchen@enron.com","President",6,8,6,1,0,6,1,1,4,1,0
"sara.shackleton@enron.com","",7,7,5,2,0,5,3,0,6,0,0
"stephanie.panus@enron.com","Employee",7,7,5,2,0,5,3,0,6,0,0
"e..haedicke@enron.com","Managing Director",8,8,7,1,0,7,3,0,0,0,0
"carol.clair@enron.com","Vice President",7,7,5,2,0,5,3,0,6,0,0
"tana.jones@enron.com","",7,7,5,2,0,5,3,0,6,0,0
"sally.beck@enron.com","Employee",9,8,8,1,0,6,1,1,4,1,0
"marie.heard@enron.com","",7,7,5,2,0,5,3,0,6,0,0
"susan.bailey@enron.com","",7,7,5,2,0,5,3,0,6,0,0
"michelle.cash@enron.com","Employee",8,4,7,1,0,7,3,0,0,0,0
"elizabeth.sager@enron.com","Employee",8,7,7,1,0,7,3,0,0,0,0
"phillip.k.ellen@enron.com","Manager",5,5,1,1,0,8,2,1,4,1,0
"jeff.skilling@enron.com","CEO",0,4,7,1,0,1,1,1,0,0,0
"gerald.nemec@enron.com","",10,9,9,2,0,9,2,1,6,0,0
"peter.keavey@enron.com","Employee",11,1,10,2,0,10,2,1,7,3,0
"liz.taylor@enron.com","",9,8,8,1,0,6,1,1,4,1,0
"andy.zipper@enron.com","Vice President",6,4,8,1,0,10,2,1,4,1,0
"dan.hyvl@enron.com","Employee",10,9,9,2,0,9,2,1,6,0,0
"richard.b.sanders@enron.com","Vice President",8,8,7,1,0,7,3,0,0,0,0
"tori.kuykendall@enron.com","Trader",1,5,11,2,0,4,2,1,7,3,0
"stacy.dickson@enron.com","Employee",7,9,5,2,0,9,2,1,6,0,0
"dana.davis@enron.com","Vice President",9,4,12,0,0,1,1,1,1,1,0
"robin.rodrigue@enron.com","",1,1,11,2,0,10,2,1,7,3,0
"paul.lucci@enron.com","Employee",1,5,13,2,0,9,2,1,6,0,0
"mark.whitt@enron.com","",1,5,13,2,0,4,2,1,6,0,0
"jason.williams@enron.com","Vice President",10,9,9,2,0,9,2,1,6,0,0
"theresa.staab@enron.com","Employee",1,5,13,2,0,9,2,1,6,0,0
"debra.perlingiere@enron.com","Employee",10,9,9,2,0,9,2,1,6,0,0
"susan.w.pereira@enron.com","Employee",1,1,11,2,0,10,2,1,7,3,0
"danny.mccarty@enron.com","Vice President",3,6,3,0,0,3,0,0,2,0,0
"kevin.m.presto@enron.com","Vice President",9,4,6,1,0,1,1,1,1,1,0
"kim.ward@enron.com","",10,5,13,2,0,4,2,1,6,0,0
"greg.whalley@enron.com","President",6,4,6,1,0,1,1,1,0,0,0
"kam.keiser@enron.com","Employee",1,10,11,2,0,11,2,1,7,3,0
"mike.grigsby@enron.com","Manager",1,10,1,1,0,8,2,1,7,3,0
"jane.tholt@enron.com","Vice President",1,5,11,2,0,4,2,1,7,3,0
"keith.holst@enron.com","Director",1,5,1,1,0,8,2,1,7,3,0
"barry.tycholiz@enron.com","Vice President",5,5,1,1,0,9,2,1,6,0,0
"richard.shapiro@enron.com","Vice President",0,0,7,1,0,2,1,1,0,0,0
"steven.j.kean@enron.com","Vice President",0,0,7,1,0,2,1,1,0,0,0
"james.derrick@enron.com","In House Lawyer",0,4,7,1,0,7,3,0,0,0,0
"chris.stokley@enron.com","",2,4,0,0,0,0,0,0,1,1,0
"jeffrey.a.shankman@enron.com","President",6,4,6,1,0,1,1,1,0,0,0
"matthew.lenhart@enron.com","Employee",1,5,11,2,0,4,2,1,7,3,0
"jay.reitmeyer@enron.com","Employee",1,5,11,2,0,4,2,1,7,3,0
"chris.dorland@enron.com","Manager",5,1,8,1,0,1,1,1,1,1,0
"lynn.blair@enron.com","Director",3,6,2,0,0,3,0,0,2,0,0
"paul.y barbo@enron.com","Trader",3,3,2,0,0,3,0,0,2,0,0
"mike.swerzbin@enron.com","Trader",2,2,0,0,0,0,0,0,1,1,0
"joe.quenet@enron.com","Trader",4,4,12,0,0,0,0,0,3,2,0
"doug.gilbert-smith@enron.com","Employee",9,4,12,0,0,1,1,1,1,1,0
"m..forney@enron.com","Manager",4,2,4,0,0,0,0,0,1,1,0
"monique.sanchez@enron.com","",1,5,11,2,0,4,2,1,7,3,0
"jason.wolfe@enron.com","",1,5,11,2,0,4,2,1,7,3,0
"frank.ermis@enron.com","Director",1,5,11,2,0,4,2,1,7,3,0
"l..gay@enron.com","Employee",1,5,13,2,0,4,2,1,7,3,0
"steven.p.south@enron.com","",1,5,11,2,0,4,2,1,7,3,0
"martin.cuilla@enron.com","Manager",1,1,11,2,0,10,2,1,7,3,0
"kay.mann@enron.com","Employee",7,7,5,2,0,7,3,0,6,0,0
"stacey.w.white@enron.com","",9,4,8,1,0,1,1,1,1,1,0
"benjamin.rogers@enron.com","Employee",9,4,12,0,0,0,0,0,1,1,0
"john.griffith@enron.com","Manager",11,1,10,2,0,11,2,1,7,3,0
"joe.stepenovitch@enron.com","Vice President",4,4,12,0,0,0,0,0,3,2,0
"paul.d.thomas@enron.com","",4,4,12,0,0,0,0,0,3,2,0
"kenneth.lay@enron.com","CEO",9,4,8,1,0,1,1,1,4,1,0
"don.baughman@enron.com","Trader",4,0,12,0,0,0,0,0,3,2,0
"john.arnold@enron.com","Manager",11,8,10,2,0,11,2,1,7,3,0
"mike.maggi@enron.com","Director",11,1,10,2,0,11,2,1,7,3,0
"juan.hernandez@enron.com","Employee",4,4,12,0,0,0,0,0,3,2,0
"j.kaminski@enron.com","Manager",6,4,6,1,0,1,1,1,0,0,0
"john.zufferli@enron.com","Vice President",9,1,8,1,0,1,1,1,1,1,0
"rick.buy@enron.com","Manager",8,4,7,1,0,1,1,1,0,0,0
"fletcher.j.sturm@enron.com","Vice President",9,4,8,1,0,1,1,1,1,1,0
"matt.smith@enron.com","",1,5,11,2,0,4,2,1,7,3,0
"phillip.m.love@enron.com","",1,10,11,2,0,11,2,1,7,3,0
"errol.mclaughlin@enron.com","Employee",11,8,11,2,0,11,2,1,7,3,0
"dutch.quigley@enron.com","Trader",11,1,10,2,0,11,2,1,7,3,0
"hunter.s.shively@enron.com","Vice President",11,1,10,2,0,10,2,1,7,3,0
"sandra.f.brawner@enron.com","Director",11,1,10,2,0,10,2,1,7,3,0
"harry.arora@enron.com","Vice President",8,4,12,0,0,1,1,1,1,1,0
"david.w.delainey@enron.com","CEO",6,4,6,1,0,1,1,1,0,0,0
"brad.mckay@enron.com","Employee",11,1,10,2,0,10,2,1,7,3,0
"jonathan.mckay@enron.com","Director",11,1,10,2,0,10,2,1,7,3,0
"scott.neal@enron.com","Vice President",11,1,10,2,0,10,2,1,7,3,0
"eric.saibi@enron.com","Trader",4,8,12,0,0,0,0,0,3,2,0
"joe.parks@enron.com","",10,1,13,2,0,10,2,1,7,3,0
"larry.may@enron.com","Director",11,1,10,2,0,11,2,1,7,3,0
"bill.williams@enron.com","",2,2,4,0,0,0,0,0,5,2,0
"lavorato@enron.com","CEO",9,4,8,1,0,1,1,1,1,1,0
"jim.schwieger@enron.com","Trader",11,1,10,2,0,10,2,1,7,3,0
"tom.donohoe@enron.com","Employee",11,1,10,2,0,10,2,1,7,3,0
"h..lewis@enron.com","Director",11,1,10,2,0,10,2,1,7,3,0
"c..giron@enron.com","Employee",1,10,11,2,0,11,2,1,7,3,0
"eric.bass@enron.com","Trader",1,10,11,2,0,11,2,1,7,3,0
"kevin.ruscitti@enron.com","Trader",11,1,10,2,0,10,2,1,7,3,0
"chris.germany@enron.com","Employee",10,9,9,2,0,11,2,1,7,3,0
"scott.hendrickson@enron.com","",11,10,10,2,0,11,2,1,7,3,0
"charles.weldon@enron.com","",11,1,10,2,0,10,2,1,7,3,0
"daren.j.farmer@enron.com","Manager",11,1,10,2,0,10,2,1,7,3,0
"john.hodge@enron.com","Managing Director",11,1,10,2,0,10,2,1,7,3,0
"patrice.l.mims@enron.com","",11,9,10,2,0,9,2,1,6,0,0
"judy.townsend@enron.com","Employee",11,10,10,2,0,11,2,1,7,3,0
"thomas.a.martin@enron.com","Vice President",11,1,10,2,0,10,2,1,7,3,0
"kate.symes@enron.com","Employee",2,2,4,0,0,0,0,0,5,2,0
"phillip.platter@enron.com","Employee",2,2,4,0,0,0,0,0,5,2,0
"geir.solberg@enron.com","Employee",2,2,4,0,0,0,0,0,5,2,0
"geoff.storey@enron.com","Director",11,1,10,2,0,10,2,1,7,3,0
"ryan.slinger@enron.com","Trader",2,2,4,0,0,0,0,0,5,2,0
"holden.salisbury@enron.com","Employee",2,2,4,0,0,0,0,0,5,2,0
"lisa.gang@enron.com","",2,2,4,0,0,0,0,0,5,2,0
"craig.dean@enron.com","Trader",2,2,4,0,0,0,0,0,5,2,0
"mike.carson@enron.com","Manager",4,4,12,0,0,0,0,0,3,2,0
"andrea.ring@enron.com","",11,1,10,2,0,10,2,1,7,3,0
"vladi.pimenov@enron.com","",11,1,10,2,0,10,2,1,7,3,0
"albert.meyers@enron.com","Employee",2,2,4,0,0,0,0,0,5,2,0
"jeff.king@enron.com","Manager",4,4,12,0,0,0,0,0,3,2,0
"monika.causholli@enron.com","Employee",2,2,4,0,0,0,0,0,5,2,0
"sean.crandall@enron.com","Director",2,2,4,0,0,0,0,0,5,2,0
"matt.motley@enron.com","Director",2,2,0,0,0,0,0,0,1,1,0
"mark.guzman@enron.com","Managing Director",2,2,4,0,0,0,0,0,5,2,0
"robert.benson@enron.com","Director",NA,NA,NA,NA,NA,NA,NA,NA,NA,NA,NA
"eric.linder@enron.com","Employee",NA,NA,NA,NA,NA,NA,NA,NA,NA,NA,NA
"steven.merris@enron.com","",NA,NA,NA,NA,NA,NA,NA,NA,NA,NA,NA
