topic,0,1,2,3,4,5,6,7,8,9,10,11,12,13
1,31,0,0,2,0,0,2,3,0,0,0,0,0,0
2,1,7,0,0,20,1,1,0,4,3,6,21,0,0
3,1,0,0,0,0,0,1,1,16,0,1,3,0,0
4,22,2,0,0,0,0,4,7,2,0,0,0,0,0
5,7,1,0,1,0,5,3,6,8,0,1,2,0,0
6,19,0,0,0,0,0,1,0,0,0,0,0,0,0
7,1,0,3,11,0,0,0,0,0,0,0,0,0,0
8,4,1,0,0,0,4,1,2,0,1,3,3,1,0
9,0,1,0,0,0,0,1,0,1,0,6,5,0,0
10,5,1,0,3,2,4,0,3,5,5,13,16,0,0
11,31,0,0,1,0,2,1,0,0,0,0,0,0,0
12,0,5,0,0,0,25,4,2,0,2,9,17,0,0
13,6,1,0,1,1,2,0,0,0,0,0,0,0,0
14,0,4,3,4,0,1,1,0,1,6,4,2,0,6
15,0,2,0,0,0,3,1,0,2,1,0,0,0,0
16,0,0,0,0,0,0,0,0,0,0,0,1,0,0
17,7,6,0,2,0,22,2,3,1,6,2,1,0,3
18,0,1,0,0,0,82,0,0,0,34,0,0,0,2
19,1,1,1,3,0,0,0,0,0,0,0,0,0,0
20,0,1,0,0,0,0,0,1,0,0,0,0,0,0
